%YAML 1.1
%TAG !u! tag:unity3d.com,2011:
--- !u!1045 &1
EditorBuildSettings:
  m_ObjectHideFlags: 0
  serializedVersion: 2
  m_Scenes:
  - enabled: 1
    path: Assets/Scenes/Title.unity
    guid: 484c6f8478939c645839e29523b2e75d
  - enabled: 1
    path: Assets/Scenes/Story.unity
    guid: f38b7250e559cc84b9aa0467376d80ac
  - enabled: 1
    path: Assets/Scenes/MainScene.unity
    guid: 33a18340281d8a947890910274697550
  - enabled: 1
    path: Assets/Scenes/CaveScene.unity
    guid: 51ce80d69a9128349b4ba95ddb8d58d4
  - enabled: 1
    path: Assets/Scenes/Ending.unity
    guid: fb6d14702615a7444bdd86dbe0f958f0
  m_configObjects:
    com.unity.input.settings: {fileID: 11400000, guid: 9e7be553448fa2546aea5752021cbcf7, type: 2}
