%YAML 1.1
%TAG !u! tag:unity3d.com,2011:
--- !u!114 &11400000
MonoBehaviour:
  m_ObjectHideFlags: 0
  m_CorrespondingSourceObject: {fileID: 0}
  m_PrefabInstance: {fileID: 0}
  m_PrefabAsset: {fileID: 0}
  m_GameObject: {fileID: 0}
  m_Enabled: 1
  m_EditorHideFlags: 0
  m_Script: {fileID: 11500000, guid: 4b2363d5b162fe349a5b7164b7de7bb9, type: 3}
  m_Name: HintsFromAnka11
  m_EditorClassIdentifier: 
  hintContent:
  - "\u304A\u524D\u3089\u306E\u4E16\u754C\u306B\u5E30\u308B\u305F\u3081\u306E\u6249\u3058\u3083\u3002\u3002|\u65E9\u304F\u6B8B\u308A\u306E\u6C34\u7389\u3092\u3002\u3002"
