%YAML 1.1
%TAG !u! tag:unity3d.com,2011:
--- !u!114 &11400000
MonoBehaviour:
  m_ObjectHideFlags: 0
  m_CorrespondingSourceObject: {fileID: 0}
  m_PrefabInstance: {fileID: 0}
  m_PrefabAsset: {fileID: 0}
  m_GameObject: {fileID: 0}
  m_Enabled: 1
  m_EditorHideFlags: 0
  m_Script: {fileID: 11500000, guid: 4b2363d5b162fe349a5b7164b7de7bb9, type: 3}
  m_Name: HintsFromAnka6
  m_EditorClassIdentifier: 
  hintContent:
  - "\u8D70\u3063\u3066\u3044\u308B\u72B6\u614B\u3067\u3001|Space\u30DC\u30BF\u30F3\u3092\u62BC\u3057\u305F\u3089\u30B8\u30E3\u30F3\u30D7\u3059\u308B\u3053\u3068\u304C\u3067\u304D\u308B\u306E\u3060\u3002\u3002"
  - "\u5C11\u3057\u5F8C\u308D\u304B\u3089\u8D70\u3063\u305F\u65B9\u304C\u30B8\u30E3\u30F3\u30D7\u304C\u6210\u529F"
