%YAML 1.1
%TAG !u! tag:unity3d.com,2011:
--- !u!114 &11400000
MonoBehaviour:
  m_ObjectHideFlags: 0
  m_CorrespondingSourceObject: {fileID: 0}
  m_PrefabInstance: {fileID: 0}
  m_PrefabAsset: {fileID: 0}
  m_GameObject: {fileID: 0}
  m_Enabled: 1
  m_EditorHideFlags: 0
  m_Script: {fileID: 11500000, guid: 4b2363d5b162fe349a5b7164b7de7bb9, type: 3}
  m_Name: HintsFromAnka7
  m_EditorClassIdentifier: 
  hintContent:
  - "\u3069\u3046\u3084\u3089\u90E8\u54C1\u304C\u306A\u3044\u3088\u3046\u3058\u3083\u306A\u3002\u3002|\u63A2\u3059\u3057\u304B\u306A\u3044\u3002\u3002"
